<?xml version="1.0" encoding="UTF-8"?>
<!DOCTYPE svg PUBLIC "-//W3C//DTD SVG 1.1//EN" "http://www.w3.org/Graphics/SVG/1.1/DTD/svg11.dtd">
<!-- Creator: CorelDRAW X6 -->
<svg xmlns="http://www.w3.org/2000/svg" xml:space="preserve" width="131px" height="131px" version="1.1" style="shape-rendering:geometricPrecision; text-rendering:geometricPrecision; image-rendering:optimizeQuality; fill-rule:evenodd; clip-rule:evenodd"
viewBox="0 0 156388 156388"
 xmlns:xlink="http://www.w3.org/1999/xlink">
 <defs>
  <style type="text/css">
   <![CDATA[
    .str0 {stroke:#FEFEFE;stroke-width:5650.28}
    .fil0 {fill:none}
    .fil1 {fill:#FEFEFE;fill-rule:nonzero}
   ]]>
  </style>
 </defs>
 <g id="Vrstva_x0020_1">
  <metadata id="CorelCorpID_0Corel-Layer"/>
  <circle class="fil0 str0" cx="78194" cy="78194" r="75369"/>
  <path class="fil1" d="M40696 94442l32676 0 0 -3113 -36046 0c-1591,-3441 -1466,-6780 0,-10021l36046 0 0 -3147 -41552 0c-1593,-3452 -1469,-6780 0,-10029l41552 0 0 -2981 -33065 0c-1591,-3447 -1466,-6780 0,-10021l46863 0c-2899,-5534 -5492,-11188 -7535,-16524 1746,-3385 4517,-5472 8100,-6560l26347 23915c8119,12306 10100,36529 0,48499l-24243 0c9329,-6724 16790,-15688 16242,-31173 -8165,10388 -16329,20787 -24485,31173l-40900 0c-1596,-3438 -1469,-6769 0,-10018zm45024 12806c-1819,2153 -7552,11326 -8625,18202 -1873,12080 18858,10173 17544,822 -890,-6402 -6427,-15502 -8919,-19024z"/>
 </g>
</svg>
