<?xml version="1.0" encoding="UTF-8"?>
<!DOCTYPE svg PUBLIC "-//W3C//DTD SVG 1.1//EN" "http://www.w3.org/Graphics/SVG/1.1/DTD/svg11.dtd">
<!-- Creator: CorelDRAW X6 -->
<svg xmlns="http://www.w3.org/2000/svg" xml:space="preserve" width="131px" height="131px" version="1.1" style="shape-rendering:geometricPrecision; text-rendering:geometricPrecision; image-rendering:optimizeQuality; fill-rule:evenodd; clip-rule:evenodd"
viewBox="0 0 202527 202527"
 xmlns:xlink="http://www.w3.org/1999/xlink">
 <defs>
  <style type="text/css">
   <![CDATA[
    .str0 {stroke:#FEFEFE;stroke-width:7317.25}
    .fil1 {fill:none}
    .fil0 {fill:#FEFEFE;fill-rule:nonzero}
   ]]>
  </style>
 </defs>
 <g id="Vrstva_x0020_1">
  <metadata id="CorelCorpID_0Corel-Layer"/>
  <g id="_210686192">
   <path class="fil0" d="M57989 125571l51261 -51257 7489 -7486 24604 -24615c2192,-2170 7668,-252 12242,4339 4577,4566 6509,10054 4324,12220l-20276 20280c2257,4006 2751,7720 900,9575l-42989 42971c-2770,2777 -25475,16087 -31267,10306l-816 -812c-5792,-5799 -8243,-12747 -5473,-15520z"/>
   <polygon class="fil0" points="56720,162055 76158,162055 76158,151690 56720,151690 "/>
   <polygon class="fil0" points="90478,162055 109916,162055 109916,151690 90478,151690 "/>
   <polygon class="fil0" points="124240,162055 143674,162055 143674,151690 124240,151690 "/>
  </g>
  <circle class="fil1 str0" cx="101263" cy="101263" r="97605"/>
 </g>
</svg>
