<?xml version="1.0" encoding="UTF-8"?>
<!DOCTYPE svg PUBLIC "-//W3C//DTD SVG 1.1//EN" "http://www.w3.org/Graphics/SVG/1.1/DTD/svg11.dtd">
<!-- Creator: CorelDRAW X6 -->
<svg xmlns="http://www.w3.org/2000/svg" xml:space="preserve" width="131px" height="131px" version="1.1" style="shape-rendering:geometricPrecision; text-rendering:geometricPrecision; image-rendering:optimizeQuality; fill-rule:evenodd; clip-rule:evenodd"
viewBox="0 0 1372948 1372948"
 xmlns:xlink="http://www.w3.org/1999/xlink">
 <defs>
  <style type="text/css">
   <![CDATA[
    .str0 {stroke:#5CC2D0;stroke-width:49604.3}
    .fil0 {fill:none}
    .fil1 {fill:#5CC2D0;fill-rule:nonzero}
   ]]>
  </style>
 </defs>
 <g id="Vrstva_x0020_1">
  <metadata id="CorelCorpID_0Corel-Layer"/>
  <circle class="fil0 str0" cx="686474" cy="686474" r="661672"/>
  <g id="_210686224">
   <path class="fil1" d="M1007538 604255c55507,-55482 55507,-145440 0,-200897l-37823 -37873c-55507,-55582 -145514,-55582 -201021,0l-25794 25745 238845 238894 25794 -25869z"/>
   <path class="fil1" d="M365435 768693c-55507,55458 -55507,145539 0,201021l37848 37848c55507,55482 145489,55482 200997,0l25794 -25745 -238845 -238870 -25794 25745z"/>
   <path class="fil1" d="M960513 925616l-34872 34996c-18899,18850 -44024,29217 -70736,29217 -26712,0 -51836,-10367 -70736,-29217l-66420 -66495 176343 -176418 66420 66470c18899,18874 29316,43999 29316,70736 0,26737 -10417,51836 -29316,70711zm-481633 -270393l-66445 -66470c-39014,-38964 -39014,-102433 0,-141422l34872 -34872c18899,-18850 44024,-29341 70736,-29341 26712,0 51836,10491 70736,29341l66470 66470 -176368 176294zm525483 85096l-66445 -66346 0 0 -79615 -79714 -159255 -159180 -66445 -66470c-30581,-30606 -71281,-47471 -114561,-47471 -43280,0 -83955,16865 -114561,47471l-34872 34872c-30606,30606 -47471,71331 -47471,114561 0,43379 16865,83955 47471,114586l66445 66470 238845 238870 66445 66371c30606,30606 71281,47471 114561,47471 43280,0 83980,-16865 114561,-47471l34872 -34872c30606,-30606 47471,-71232 47471,-114561 0,-43255 -16865,-83980 -47447,-114586z"/>
   <path class="fil1" d="M493315 445695c-26092,0 -47223,21131 -47223,47248 0,26092 21131,47223 47223,47223 26067,0 47198,-21131 47198,-47223 0,-26117 -21131,-47248 -47198,-47248z"/>
   <path class="fil1" d="M879286 922987c26067,0 47198,-21131 47198,-47223 0,-26117 -21131,-47248 -47198,-47248 -26092,0 -47223,21131 -47223,47248 0,26092 21131,47223 47223,47223z"/>
  </g>
 </g>
</svg>
