<?xml version="1.0" encoding="UTF-8"?>
<!DOCTYPE svg PUBLIC "-//W3C//DTD SVG 1.1//EN" "http://www.w3.org/Graphics/SVG/1.1/DTD/svg11.dtd">
<!-- Creator: CorelDRAW X6 -->
<svg xmlns="http://www.w3.org/2000/svg" xml:space="preserve" version="1.1" style="shape-rendering:geometricPrecision; text-rendering:geometricPrecision; image-rendering:optimizeQuality; fill-rule:evenodd; clip-rule:evenodd"
viewBox="0 0 8061482 2100871"
 xmlns:xlink="http://www.w3.org/1999/xlink">
 <defs>
  <style type="text/css">
   <![CDATA[
    .fil1 {fill:#63C3D1;fill-rule:nonzero}
    .fil0 {fill:white;fill-rule:nonzero}
   ]]>
  </style>
 </defs>
 <g id="Vrstva_x0020_1">
  <metadata id="CorelCorpID_0Corel-Layer"/>
  <g id="_685287568">
   <polygon class="fil0" points="768436,0 768436,560163 283752,282563 4714,773399 472858,1041467 21,1301089 270216,1796889 768436,1523293 768436,2093342 966050,2093342 966050,0 "/>
   <polygon class="fil0" points="1324990,0 1324990,560163 1809674,282563 2088712,773399 1620589,1041467 2093405,1301089 1823209,1796889 1324990,1523293 1324990,2093342 1127375,2093342 1127375,0 "/>
   <path class="fil1" d="M1257937 1455552l-130728 -59795 0 164036 130728 59816 0 -164057zm-130728 -449957l0 164036 130728 59816 0 -164057 -130728 -59795zm-161262 316372l-134608 -61589 0 164036 134608 61610 0 -164057zm0 -390162l-134608 -61589 0 164036 134608 61610 0 -164057zm0 -391664l-134107 -61360 0 164036 134107 61360 0 -164036zm292533 297851l0 -164015 -131271 -60067 0 164036 131271 60046z"/>
   <path class="fil1" d="M1257937 1455635l-207981 108850 0 164036 207981 -108829 0 -164057zm-426619 -195008l0 164057 426619 -195196 0 -164036 -426619 195175zm134795 -814841l45321 -23735 0 34079 -45321 23735 0 -34079zm-134232 197198l218075 -114127 0 -164036 -218075 114127 0 164036zm426619 194883l0 -164015 -427182 196364 0 164015 427182 -196364z"/>
   <g>
    <path class="fil1" d="M8061482 1710876l-286192 0 0 -115065 275973 0 0 -89558 -275973 0 0 -117255 286192 0 0 -93208 -381590 0 0 509774 381590 0 0 -94688zm-688889 -415085l-95397 0 0 509774 95397 0 0 -509774zm-407076 63341c-52412,-51703 -120863,-77899 -189293,-77899 -179908,0 -269465,132501 -269465,275973 0,134003 77920,259997 269465,259997 89537,0 152878,-34246 203121,-91748l0 -214842 -218451 0 0 85949 130374 0 0 90267c-40065,32056 -75042,40795 -115044,40795 -126766,0 -175528,-86659 -175528,-170418 0,-104845 66282,-187875 175528,-187875 44383,0 95356,18208 129581,50994l59712 -61193zm-905170 26217c60421,0 87409,40795 87409,81590 0,40754 -26217,81528 -87409,81528l-146329 0 0 -163118 146329 0zm209003 413646l-154380 -174068c96837,-19626 128914,-90267 128914,-160198 0,-88119 -63383,-168207 -183537,-168937 -80819,0 -161638,-730 -242477,-730l0 510504 96148 0 0 -170418 92457 0 148581 170418 114293 0 0 -6570zm-859995 -502474l0 292011c0,87368 -45175,140573 -124555,140573 -79359,0 -131771,-48804 -131771,-140573l0 -292011 -95397 0 0 292011c0,153670 104095,227961 226480,227961 128121,0 220641,-77211 220641,-227961l0 -292011 -95397 0zm-833841 88828c60463,0 87430,40795 87430,81590 0,40754 -26217,81528 -87430,81528l-146350 0 0 -163118 146350 0zm209023 413646l-154400 -174068c96857,-19626 128914,-90267 128914,-160198 0,-88119 -63341,-168207 -183537,-168937 -80777,0 -161596,-730 -242498,-730l0 510504 96148 0 0 -170418 92498 0 148561 170418 114314 0 0 -6570zm-760990 -503204l-95377 0 0 509774 95377 0 0 -509774zm-404866 510483l0 -509753 -95377 0 0 214822 -250507 0 0 -214822 -96148 0 0 509753 96148 0 0 -206083 250507 0 0 206083 95377 0zm-780637 -131083c-33475,33475 -83760,51703 -128142,51703 -126036,0 -174798,-88119 -175507,-172566 -730,-85220 52433,-176988 175507,-176988 44383,0 89558,15309 123053,48095l64050 -61902c-52412,-51724 -117922,-77961 -187103,-77961 -184288,0 -270925,135442 -270175,268756 730,132501 80819,262875 270175,262875 73519,0 141261,-24027 193694,-75730l-65552 -66282z"/>
    <path class="fil0" d="M2525780 2038490l-43340 0 21649 -49847 21691 49847zm18708 42505l23985 0 -52371 -116921 -24027 0 -52371 116921 23881 0 9990 -22045 61047 0 9865 22045zm217303 0l22004 0 0 -116567 -25174 0 -36541 50097 -36520 -50097 -25341 0 0 116567 21983 0 0 -84761 37208 50765 4359 0 38021 -50598 0 84594zm202662 -34538c0,11033 -12848,14036 -21837,14036l-33725 0 0 -30033 33725 0c8989,0 21837,5506 21837,15997zm-3504 -47928c0,6716 -4484,12576 -18333,12576l-33725 0 0 -27009 33725 0c13974,0 18333,9073 18333,14433zm6674 22087c10825,-4797 15163,-13515 15163,-22608 0,-23610 -17165,-33933 -40170,-33933l-55374 0 0 116921 55374 0c24173,0 43673,-8322 43673,-34392 0,-7321 -5006,-21816 -18667,-25987zm219973 10699l0 -66887 -21816 0 0 66887c0,20001 -10345,32182 -28532,32182 -18166,0 -30200,-11158 -30200,-32182l0 -66887 -21837 0 0 66887c0,35185 23818,52183 51870,52183 29345,0 50514,-17686 50514,-52183zm104950 49680l82049 0 0 -20335 -60067 0 0 -96586 -21983 0 0 116921zm254991 -42505l-43361 0 21712 -49847 21649 49847zm18687 42505l24048 0 -52371 -116921 -24027 0 -52371 116921 23839 0 10032 -22045 61026 0 9823 22045zm202516 0l13640 0 0 -116921 -21983 0 0 72476 -57209 -72476 -17853 0 0 116921 22004 0 0 -78837 61401 78837zm135588 -57543c-167,-19522 12013,-40545 40170,-40545 10178,0 20544,3504 28219,11012l14662 -14162c-12013,-11846 -27009,-17853 -42881,-17853 -42172,0 -62006,31034 -61860,61547 209,30346 18500,60192 61860,60192 16873,0 32390,-5485 44383,-17290l-14996 -15204c-7675,7675 -19209,11846 -29387,11846 -28844,0 -40024,-20168 -40170,-39544zm179991 57543l87347 0 0 -21670 -65531 0 0 -26363 63237 0 0 -20523 -63237 0 0 -27030 65531 0 0 -21336 -87347 0 0 116921zm574721 -57543c-146,-19522 11992,-40545 40190,-40545 10178,0 20523,3504 28219,11012l14662 -14162c-12013,-11846 -26988,-17853 -42881,-17853 -42151,0 -62027,31034 -61860,61547 188,30346 18500,60192 61860,60192 16873,0 32390,-5485 44362,-17290l-14975 -15204c-7675,7675 -19209,11846 -29387,11846 -28844,0 -40003,-20168 -40190,-39544zm259872 57543l21858 0 0 -116567 -21858 0 0 49180 -57376 0 0 -49180 -21983 0 0 116567 21983 0 0 -47052 57376 0 0 47052zm126119 0l21837 0 0 -116921 -21837 0 0 116921zm181618 -58836l-33516 0 0 -37583 33516 0c13870,0 20064,9385 20064,18771 0,9406 -6028,18813 -20064,18813zm21691 58836l26154 0 0 -1523 -35310 -39836c22170,-4526 29512,-20669 29512,-36791 0,-20272 -14516,-38584 -42047,-38772 -18541,188 -37020,0 -55499,0l0 116921 21983 0 0 -39043 21148 0 34059 39043zm224499 -49680l0 -66887 -21837 0 0 66887c0,20001 -10324,32182 -28552,32182 -18145,0 -30179,-11158 -30179,-32182l0 -66887 -21816 0 0 66887c0,35185 23818,52183 51849,52183 29366,0 50535,-17686 50535,-52183zm160636 -9156l-33558 0 0 -37583 33558 0c13828,0 20022,9385 20022,18771 0,9406 -6028,18813 -20022,18813zm21691 58836l26154 0 0 -1523 -35331 -39836c22150,-4526 29491,-20669 29491,-36791 0,-20272 -14537,-38584 -42005,-38772 -18521,188 -37020,0 -55520,0l0 116921 21962 0 0 -39043 21190 0 34059 39043zm175632 2649c20523,0 35018,-7800 46510,-21002l0 -49180 -50035 0 0 19626 29866 0 0 20710c-9177,7341 -17165,9344 -26342,9344 -29032,0 -40211,-19855 -40211,-39022 0,-24006 15184,-43048 40211,-43048 10178,0 21858,4171 29679,11680l13682 -13995c-12013,-11846 -27697,-17853 -43361,-17853 -41254,0 -61714,30346 -61714,63216 0,30680 17832,59524 61714,59524zm148102 -2649l21816 0 0 -116921 -21816 0 0 116921zm125618 0l87368 0 0 -21670 -65573 0 0 -26363 63216 0 0 -20523 -63216 0 0 -27030 65573 0 0 -21336 -87368 0 0 116921zm611407 -54540l-33016 0 0 -41358 33016 0c28073,0 28198,41358 0,41358zm0 -62382c-18312,-146 -36666,0 -55019,0l0 116921 22004 0 0 -34392 33016 0c57230,0 57042,-82529 0,-82529zm141157 116921l82028 0 0 -20335 -60025 0 0 -96586 -22004 0 0 116921zm254991 -42505l-43340 0 21670 -49847 21670 49847zm18687 42505l24048 0 -52391 -116921 -24048 0 -52350 116921 23881 0 9990 -22045 61047 0 9823 22045zm135776 -86095c0,-8635 7842,-15496 24173,-15496 12722,0 23693,6320 27718,13014l17499 -9010c-8822,-17978 -27677,-23172 -45863,-23172 -21524,188 -45196,10011 -45196,34017 0,26196 21983,32536 45843,35373 15496,1689 27051,6174 27051,17186 0,12681 -13014,17519 -26863,17519 -14182,0 -27697,-5694 -32849,-18500l-18354 9511c8676,21336 27009,28657 50848,28657 26050,0 49054,-11179 49054,-37187 0,-27843 -22671,-34225 -47052,-37187 -13974,-1669 -26008,-4526 -26008,-14725zm225667 -10804l37041 0 0 -20022 -96065 0 0 20022 37020 0 0 96899 22004 0 0 -96899zm133919 96899l21837 0 0 -116921 -21837 0 0 116921zm196822 0l27197 0 0 -1356 -56250 -58961 51891 -55916 0 -688 -27364 0 -44341 49430 0 -49430 -22024 0 0 116921 22024 0 0 -51766 48867 51766zm195842 -42505l-43402 0 21691 -49847 21712 49847zm42693 42505l-52391 -116921 -24006 0 -52391 116921 23881 0 9990 -22045 61047 0 9865 22045 24006 0z"/>
    <path class="fil1" d="M4393372 2100871l19689 0 0 -157946 -19689 0 0 157946zm2037155 0l19647 0 0 -157946 -19647 0 0 157946z"/>
   </g>
   <path class="fil0" d="M3364669 1073858l212089 0 -462492 -1030977 -200639 0 94375 217032 229 -521 191462 438903 -382946 0 95502 -218868 -101342 -233050 -371182 827480 210609 0 88390 -194403 539035 0 86909 194403zm1419783 -691997l194403 244396 0 -584857 -194403 0 0 340461zm73623 691997l120780 0 0 -151272 -194403 -244417 0 3921 -505185 -639209 -157591 0 0 1030977 194424 0 0 -695167 541976 696668 0 -1502zm860100 -310761l-161992 83947c76606,188522 238598,253343 449206,253343 65135,0 127913,-8259 184747,-24861l-121531 -152794c-19584,2524 -39752,3838 -60254,3838 -125201,0 -244500,-50076 -290176,-163473zm75146 -449206c0,-76585 69223,-136964 213549,-136964 111937,0 209149,55958 244479,114857l154672 -79505c-78066,-159093 -244500,-204769 -405033,-204769 -189982,1481 -399151,88390 -399151,300458 0,231236 194403,287235 405033,312263 136985,14704 238619,54498 238619,151710 0,22754 -4985,42547 -13578,59795l121677 153003c52663,-51870 84823,-121927 84823,-212798 0,-245960 -200326,-301939 -415336,-328448 -123741,-14746 -229755,-39752 -229755,-129602zm2268161 759968l-462471 -1030977 -198220 0 232654 535052 -1293 521 52308 119841 -382987 0 96711 -221683 -101300 -233008 -372455 830254 210650 0 88369 -194403 539035 0 86867 194403 212131 0z"/>
  </g>
 </g>
</svg>
